\relax 
\@writefile{toc}{\contentsline {section}{\numberline {1}Introduction}{1}}
\@writefile{toc}{\contentsline {section}{\numberline {2}List}{1}}
\@writefile{lof}{\contentsline {figure}{\numberline {1}{\ignorespaces Illustration how linked list work}}{1}}
\newlabel{fig:linkedlist}{{1}{1}}
\newlabel{fig:linkedlist@cref}{{[figure][1][]1}{1}}
\@writefile{toc}{\contentsline {section}{\numberline {3}Results}{2}}
\@writefile{toc}{\contentsline {section}{\numberline {4}Concluding remarks}{2}}
\citation{*}
\bibstyle{plain}
\bibdata{bibliography}
\@writefile{toc}{\contentsline {section}{\numberline {5}References}{3}}
